Name,Number of Projects,Cyclomatic complexity,Complexity average by class,Complexity average by file,Complexity average by function,File dependencies to cut,Package cycles,Package dependencies to cut,Package tangle index,Number of comment lines,Comments balanced by ncloc + comment lines,Public documented classes and functions balanced by ncloc,"Public undocumented classes, functions and variables",Duplicated blocks,Duplicated files,Duplicated lines,Duplicated lines balanced by statements,The project status with regard to its quality gate.,Blocker issues,Confirmed issues,Critical issues,False positive issues,Info issues,Issues,Major issues,Minor issues,Open issues,Reopened issues,,,,Classes,Directories,Number of files,Functions,Number of generated lines,Generated non Commenting Lines of Code,Lines,Non Commenting Lines of Code,Number of projects,Public API,Number of statements,Rating of the technical debt ratio based on the SQALE Governance Model.,Total effort (in days) to fix all the issues on the component and therefore to comply to all the requirements.,Ratio of the actual technical debt compared to the estimated cost to develop the whole source code from scratch.
babbuino/babbuino3/src/esercizio_rettangolo/Rettangolo.java,1,10,10.0,10.0,1.4,,,,,10,17.9,12.5,7,,,,,,,,,,,3,1,2,3,,,,,1,,1,7,,,60,46,,8,13,A,13,0.9
babbuino/babbuino4/src/progettorettangolo/Rettangolo.java,1,8,8.0,8.0,1.6,,,,,1,2.2,16.7,5,,,,,,,,,,,6,1,5,6,,,,,1,,1,5,,,63,44,,6,13,A,19,1.4
babbuino/babbuino5/BertoldiPersona.java,1,6,6.0,6.0,1.0,,,,,1,4.2,33.3,2,1,1,13,36.1,,,,,,,11,2,9,11,,,,,1,,1,6,,,36,23,,3,13,B,74,10.7
biscia/biscia3/src/Rettangolo.java,1,8,8.0,8.0,1.6,,,,,1,2.5,20.0,4,,,,,,,,,,,1,,1,1,,,,,1,,1,5,,,58,39,,5,13,A,10,0.9
biscia/biscia4/BruschiDado.java,1,6,6.0,6.0,1.0,,,,,2,7.1,0.0,6,,,,,,,,,,,9,2,7,9,,,,,1,,1,6,,,39,26,,6,10,A,39,5.0
bucero/bucero3/src/main_rettangolo/Rettangolo.java,1,11,11.0,11.0,1.4,,,,,12,19.7,11.1,8,1,1,18,25.4,,,,,,,7,2,5,7,,,,,1,,1,8,,,71,49,,9,14,A,92,6.3
bucero/bucero5/ManziniDado.java,1,6,6.0,6.0,1.0,,,,,4,12.9,0.0,6,,,,,,,,,,,9,1,8,9,,,,,1,,1,6,,,42,27,,6,10,A,47,5.8
buemuschiato/buemuschiato3/src/javino_rettangolo/rettangolo.java,1,11,11.0,11.0,2.2,,,,,2,4.3,16.7,5,1,1,18,29.5,,,,,,,4,2,2,4,,,,,1,,1,5,,,61,44,,6,15,A,76,5.8
buemuschiato/buemuschiato4/src/progettorettangolo/Rettangolo.java,1,8,8.0,8.0,1.6,,,,,7,13.0,16.7,5,6,1,37,55.2,,,,,,,7,3,4,7,,,,,1,,1,5,,,67,47,,6,15,C,387,27.4
buemuschiato/buemuschiato5/Galavotti_Persona.java,1,6,6.0,6.0,1.0,,,,,1,4.3,33.3,2,,,,,,,,,,,12,1,11,12,,,,,1,,1,6,,,36,22,,3,13,A,34,5.2
buemuschiato/buemuschiato5/cotti data.java,1,57,57.0,57.0,2.9,,,,,9,5.2,7.7,12,,,,,,,,,,,8,1,7,8,,,,,1,,1,20,,,178,163,,13,81,A,30,0.6
buemuschiato/buemuschiato6/Persona-Guiduzzi-Kalkowski.java,1,6,6.0,6.0,1.0,,,,,3,5.6,33.3,2,,,,,,,,,,,6,1,5,6,,,,,1,,1,6,,,74,51,,3,14,A,19,1.2
marmotta/marmotta2/src/mainrettangolo/Rettangolo.java,1,10,10.0,10.0,1.7,,,,,5,9.3,16.7,5,4,1,35,49.3,,,,1,,,9,2,6,9,,,,,1,,1,6,,,71,49,,6,18,B,272,18.5
marmotta/marmotta3/Arfaoui_Persona.java,1,10,10.0,10.0,1.0,,,,,4,7.3,14.3,6,,,,,,,,,,,11,2,9,11,,,,,1,,1,10,,,75,51,,7,14,A,60,3.9
marmotta/marmotta4/VanziniDado.java,1,3,3.0,3.0,1.0,,,,,3,10.3,0.0,4,,,,,,,,,,,2,1,1,2,,,,,1,,1,3,,,44,26,,4,8,A,15,1.9
marmotta/marmotta4/Venturi-Dado.java,1,5,5.0,5.0,1.0,,,,,1,3.6,0.0,5,,,,,,,,,,,5,1,4,5,,,,,1,,1,5,,,39,27,,5,8,A,30,3.7
mosca/mosca1/src/rettangolo.java,1,10,10.0,10.0,1.4,,,,,1,2.6,14.3,6,,,,,,,,,,,4,3,1,4,,,,,1,,1,7,,,54,38,,7,13,A,12,1.1
mosca/mosca2/src/rettangolo_murlano/ClasseRettangolo.java,1,13,13.0,13.0,1.9,,,,,12,19.7,0.0,7,,,,,,,,,,,2,1,1,2,,,,,1,,1,7,,,57,49,,7,15,A,11,0.7
mosca/mosca3/dado.java,1,6,6.0,6.0,1.2,,,,,2,7.7,25.0,3,,,,,,,,,,,2,,2,2,,,,,1,,1,5,,,45,24,,4,10,A,15,2.1
mosca/mosca4/CasuPersona.java,1,6,6.0,6.0,1.0,,,,,1,2.2,33.3,2,,,,,,,,,,,12,3,9,12,,,,,1,,1,6,,,56,44,,3,15,A,44,3.3
muflone/muflone2/src/classe_rettangolo/Rettangolo.java,1,8,8.0,8.0,1.6,,,,,1,1.9,16.7,5,,,,,,,,,,,6,2,4,6,,,,,1,,1,5,,,72,51,,6,13,A,27,1.8
muflone/muflone3/NavaPersona.java,1,2,2.0,2.0,1.0,,,,,1,2.0,33.3,2,1,1,18,28.6,,,,,,,4,2,2,4,,,,,1,,1,2,,,63,48,,3,13,A,85,5.9
surmolotto/surmolotto3/src/classerettangolo/Rettangolo.java,1,10,10.0,10.0,1.7,,,,,9,12.3,16.7,5,3,1,37,43.5,,,,1,,,4,1,2,4,,,,,1,,1,6,,,85,64,,6,22,B,194,10.1
surmolotto/surmolotto4/Guerzoni-Persona.java,1,10,10.0,10.0,1.0,,,,,1,3.8,14.3,6,,,,,,,,,,,19,1,18,19,,,,,1,,1,10,,,40,25,,7,13,A,73,9.7
svasso/svasso3/src/javaino_rettangolo/rettangolo.java,1,5,5.0,5.0,1.3,,,,,24,33.3,20.0,4,,,,,,,,,,,4,2,2,4,,,,,1,,1,4,,,83,48,,5,17,A,35,2.4
svasso/svasso4/src/Rettangolo.java,1,8,8.0,8.0,1.6,,,,,1,2.4,20.0,4,,,,,,,,1,,,11,5,5,11,,,,,1,,1,5,,,66,41,,5,13,A,43,3.5
svasso/svasso5/Zito-dadoscopo.java,1,4,4.0,4.0,1.0,,,,,1,4.8,0.0,5,,,,,,,,,,,8,1,7,8,,,,,1,,1,4,,,38,20,,5,7,A,35,5.8
