Name,Cyclomatic complexity,Complexity average by class,Complexity average by file,Complexity average by function,File dependencies to cut,Package cycles,Package dependencies to cut,Package tangle index,Number of comment lines,Comments balanced by ncloc + comment lines,Public documented classes and functions balanced by ncloc,"Public undocumented classes, functions and variables",Duplicated blocks,Duplicated files,Duplicated lines,Duplicated lines balanced by statements,The project status with regard to its quality gate.,Blocker issues,Confirmed issues,Critical issues,False positive issues,Info issues,Issues,Major issues,Minor issues,Open issues,Reopened issues,,,,Classes,Directories,Number of files,Functions,Number of generated lines,Generated non Commenting Lines of Code,Lines,Non Commenting Lines of Code,Number of projects,Public API,Number of statements,Rating of the technical debt ratio based on the SQALE Governance Model.,Total effort (in days) to fix all the issues on the component and therefore to comply to all the requirements.,Ratio of the actual technical debt compared to the estimated cost to develop the whole source code from scratch.
babbuino/babbuino1+/catalog.php,4,,4.0,4.0,,,,,0,0.0,,,,,,,,,,,,,3,,3,3,,,,,0,,1,1,,,38,22,,,14,A,22,3.3
babbuino/babbuino1+/form.php,1,,1.0,,,,,,0,0.0,,,,,,,,,,,,,1,,1,1,,,,,0,,1,0,,,32,25,,,7,A,2,0.3
babbuino/babbuino1+/login.php,5,,5.0,,,,,,0,0.0,,,,,,,,,,6,,,7,,1,7,,,,,0,,1,0,,,45,33,,,12,A,77,7.8
babbuino/babbuino1+/registration.php,4,,4.0,,,,,,0,0.0,,,,,,,,,,6,,,7,,1,7,,,,,0,,1,0,,,20,11,,,9,C,77,23.3
babbuino/babbuino1+/shop.php,0,,0.0,,,,,,0,,,,,,,,,,,,,,1,,1,1,,,,,0,,1,0,,,5,0,,,0,A,2,
babbuino/babbuino1+/welcome.php,0,,0.0,,,,,,0,0.0,,,,,,,,,,,,,1,,1,1,,,,,0,,1,0,,,12,5,,,2,A,2,1.3
babbuino/babbuino1/catalogo.php,1,,1.0,,,,,,0,0.0,,,,,,,,,,,,,4,1,3,4,,,,,0,,1,0,,,31,24,,,6,A,24,3.3
babbuino/babbuino1/form.php,1,,1.0,,,,,,0,0.0,,,,,,,,,,,,,2,1,1,2,,,,,0,,1,0,,,37,32,,,6,A,4,0.4
babbuino/babbuino1/login.php,8,,8.0,,,,,,0,0.0,,,,,,,,,,6,,,11,4,1,11,,,,,0,,1,0,,,46,32,,,20,A,85,8.9
babbuino/babbuino1/shop.php,0,,0.0,,,,,,0,0.0,,,,,,,,,,,,,1,,1,1,,,,,0,,1,0,,,9,2,,,2,A,2,3.3
babbuino/babbuino1/welcome.php,0,,0.0,,,,,,0,0.0,,,,,,,,,,,,,1,,1,1,,,,,0,,1,0,,,6,2,,,2,A,2,3.3
babbuino/babbuino15+/10.php,3,,3.0,,,,,,0,0.0,,,1,1,50,94.3,,,,5,,,8,2,1,8,,,,,0,,1,0,,,53,12,,,6,B,56,15.6
babbuino/babbuino15+/20.php,0,,0.0,,,,,,0,,,,,,,,,,,1,,,2,,1,2,,,,,0,,1,0,,,12,0,,,0,A,4,
babbuino/babbuino15+/5.php,4,,4.0,,,,,,1,7.1,,,2,1,35,94.6,,,,7,,1,12,3,1,12,,,,,0,,1,0,,,37,13,,,10,C,85,21.8
babbuino/babbuino15+/6.php,3,,3.0,,,,,,2,14.3,,,1,1,41,95.3,,,,5,,1,8,1,1,8,,,,,0,,1,0,,,43,12,,,9,B,56,15.6
babbuino/babbuino15+/7.php,4,,4.0,,,,,,1,6.7,,,3,1,38,88.4,,,,7,,1,13,3,2,13,,,,,0,,1,0,,,43,14,,,11,C,95,22.6
babbuino/babbuino15+/accedi.php,0,,0.0,,,,,,0,,,,,,,,,,,1,,,2,,1,2,,,,,0,,1,0,,,14,0,,,0,A,4,
babbuino/babbuino15+/aggiungi.php,0,,0.0,,,,,,0,,,,,,,,,,,1,,,2,,1,2,,,,,0,,1,0,,,14,0,,,0,A,4,
babbuino/babbuino15+/due.php,3,,3.0,,,,,,2,12.5,,,1,1,30,96.8,,,,5,,1,8,1,1,8,,,,,0,,1,0,,,31,14,,,11,B,56,13.3
babbuino/babbuino15+/natura.php,3,,3.0,,,,,,2,15.4,,,1,1,28,96.6,,,,5,,1,7,,1,7,,,,,0,,1,0,,,29,11,,,9,B,55,16.7
babbuino/babbuino15+/upload.php,1,,1.0,,,,,,0,0.0,,,,,,,,,,1,,,4,2,1,4,,,,,0,,1,0,,,21,10,,,5,A,6,2.0
babbuino/babbuino15/accedi.php,0,,0.0,,,,,,0,,,,,,,,,,,1,,,2,,1,2,,,,,0,,1,0,,,15,0,,,0,A,4,
babbuino/babbuino15/index.php,0,,0.0,,,,,,0,,,,,,,,,,,1,,,2,,1,2,,,,,0,,1,0,,,16,0,,,0,A,4,
babbuino/babbuino15/inserimento_genere.php,3,,3.0,,,,,,0,0.0,,,1,1,10,38.5,,,,5,,,8,2,1,8,,,,,0,,1,0,,,26,8,,,5,C,57,23.8
babbuino/babbuino15/inserimento_genere2.php,2,,2.0,,,,,,0,0.0,,,,,,,,,,5,,,6,,1,6,,,,,0,,1,0,,,21,8,,,7,C,54,22.5
babbuino/babbuino15/inserimento_ramo.php,0,,0.0,,,,,,0,,,,,,,,,,,1,,,2,,1,2,,,,,0,,1,0,,,15,0,,,0,A,4,
babbuino/babbuino15/inserimento_ramo2.php,2,,2.0,,,,,,0,0.0,,,,,,,,,,5,,,6,,1,6,,,,,0,,1,0,,,22,9,,,8,C,54,20.0
babbuino/babbuino15/insert_elemento.php,3,,3.0,,,,,,0,0.0,,,1,1,10,35.7,,,,5,,,8,2,1,8,,,,,0,,1,0,,,28,8,,,5,C,57,23.8
babbuino/babbuino15/insert_elemento2.php,3,,3.0,,,,,,0,0.0,,,,,,,,,,7,,,8,,1,8,,,,,0,,1,0,,,21,8,,,6,C,79,32.9
babbuino/babbuino15/login.php,3,,3.0,,,,,,0,0.0,,,,,,,,,,5,,,8,2,1,8,,,,,0,,1,0,,,27,13,,,7,B,56,14.4
babbuino/babbuino15/mostra_elemento.php,3,,3.0,,,,,,0,0.0,,,,,,,,,,5,,,8,2,1,8,,,,,0,,1,0,,,24,13,,,10,B,57,14.6
babbuino/babbuino15/mostra_generi.php,3,,3.0,,,,,,0,0.0,,,,,,,,,,5,,,8,2,1,8,,,,,0,,1,0,,,28,12,,,9,B,57,15.8
babbuino/babbuino15/mostra_rami.php,3,,3.0,,,,,,0,0.0,,,,,,,,,,5,,,8,2,1,8,,,,,0,,1,0,,,24,10,,,7,B,57,19.0
babbuino/babbuino15/sito.php,0,,0.0,,,,,,0,,,,,,,,,,,1,,,2,,1,2,,,,,0,,1,0,,,15,0,,,0,A,4,
biscia/biscia1+/catalog.php,3,,3.0,3.0,,,,,0,0.0,,,1,1,34,85.0,,,,,,,8,7,1,8,,,,,0,,1,1,,,40,31,,,11,A,16,1.7
biscia/biscia1+/form.php,0,,0.0,,,,,,0,0.0,,,,,,,,,,1,,,2,,1,2,,,,,0,,1,0,,,12,2,,,2,A,4,6.7
biscia/biscia1+/shop.php,3,,3.0,3.0,,,,,0,0.0,,,1,1,34,73.9,,,,,,,10,9,1,10,,,,,0,,1,1,,,46,36,,,16,A,20,1.9
biscia/biscia1+/welcome.php,0,,0.0,,,,,,0,0.0,,,,,,,,,,,,,3,2,1,3,,,,,0,,1,0,,,8,4,,,4,A,6,5.0
biscia/biscia1/catalog.php,3,,3.0,3.0,,,,,0,0.0,,,,,,,,,,,,,3,,3,3,,,,,0,,1,1,,,24,18,,,10,A,22,4.1
biscia/biscia1/form.php,2,,2.0,,,,,,0,0.0,,,,,,,,,,1,,,6,4,1,6,,,,,0,,1,0,,,13,2,,,4,B,10,16.7
biscia/biscia1/login.php,2,,2.0,,,,,,0,0.0,,,,,,,,,,,,,1,,1,1,,,,,0,,1,0,,,32,26,,,13,A,2,0.3
biscia/biscia1/shop.php,3,,3.0,,,,,,0,0.0,,,,,,,,,,,,,3,,3,3,,,,,0,,1,0,,,25,21,,,13,A,22,3.5
biscia/biscia1/welcome.php,0,,0.0,,,,,,0,0.0,,,,,,,,,,,,,1,,1,1,,,,,0,,1,0,,,5,2,,,2,A,2,3.3
biscia/biscia14+/accedi.php,0,,0.0,,,,,,0,,,,,,,,,,,1,,,2,,1,2,,,,,0,,1,0,,,17,0,,,0,A,4,
biscia/biscia14+/controllo.php,3,,3.0,,,,,,0,0.0,,,1,1,23,71.9,,,,5,,,11,5,1,11,,,,,0,,1,0,,,32,11,,,8,B,63,19.1
biscia/biscia14+/imgins.php,1,,1.0,,,,,,0,0.0,,,,,,,,,,1,,,4,2,1,4,,,,,0,,1,0,,,20,10,,,5,A,6,2.0
biscia/biscia14+/imgupl.php,0,,0.0,,,,,,0,,,,,,,,,,,1,,,2,,1,2,,,,,0,,1,0,,,14,0,,,0,A,4,
biscia/biscia14+/index.php,0,,0.0,,,,,,0,,,,,,,,,,,1,,,1,,,1,,,,,0,,1,0,,,12,0,,,0,A,2,
biscia/biscia14+/inserimento.php,0,,0.0,,,,,,0,,,,,,,,,,,1,,,2,,1,2,,,,,0,,1,0,,,20,0,,,0,A,4,
biscia/biscia14+/inserimento2.php,3,,3.0,,,,,,0,0.0,,,,,,,,,,5,,,12,5,2,12,,,,,0,,1,0,,,41,15,,,13,B,74,16.4
biscia/biscia14+/inserimento3.php,3,,3.0,,,,,,0,0.0,,,3,1,26,68.4,,,,5,,,7,1,1,7,,,,,0,,1,0,,,38,9,,,7,C,56,20.7
biscia/biscia14+/inserimento4.php,3,,3.0,,,,,,0,0.0,,,,,,,,,,5,,,12,5,2,12,,,,,0,,1,0,,,41,15,,,13,B,74,16.4
biscia/biscia14+/pallavolo.php,3,,3.0,,,,,,0,0.0,,,3,1,24,72.7,,,,5,,,7,1,1,7,,,,,0,,1,0,,,33,9,,,7,C,56,20.7
biscia/biscia14+/pallavolo2.php,3,,3.0,,,,,,0,0.0,,,,,,,,,,5,,,8,2,1,8,,,,,0,,1,0,,,36,10,,,8,B,58,19.3
biscia/biscia14+/pallavolo3.php,3,,3.0,,,,,,0,0.0,,,1,1,30,93.8,,,,5,,,6,,1,6,,,,,0,,1,0,,,32,12,,,10,B,54,15.0
biscia/biscia14/barca.php,4,,4.0,,,,,,1,7.1,,,2,1,36,87.8,,,,5,,1,8,1,1,8,,,,,0,,1,0,,,41,13,,,10,B,60,15.4
biscia/biscia14/bayern.php,4,,4.0,,,,,,1,7.1,,,2,1,36,87.8,,,,5,,1,8,1,1,8,,,,,0,,1,0,,,41,13,,,10,B,60,15.4
biscia/biscia14/borussia.php,4,,4.0,,,,,,1,7.1,,,2,1,36,76.6,,,,5,,1,8,1,1,8,,,,,0,,1,0,,,47,13,,,10,B,60,15.4
biscia/biscia14/campionati.php,4,,4.0,,,,,,1,7.1,,,3,1,38,77.6,,,,5,,1,8,1,1,8,,,,,0,,1,0,,,49,13,,,10,B,60,15.4
biscia/biscia14/germania.php,4,,4.0,,,,,,1,7.1,,,4,1,42,89.4,,,,5,,1,8,1,1,8,,,,,0,,1,0,,,47,13,,,10,B,60,15.4
biscia/biscia14/index.php,0,,0.0,,,,,,0,,,,,,,,,,,1,,,1,,,1,,,,,0,,1,0,,,19,0,,,0,A,2,
biscia/biscia14/italia.php,4,,4.0,,,,,,1,7.1,,,2,1,33,80.5,,,,5,,1,8,1,1,8,,,,,0,,1,0,,,41,13,,,10,B,60,15.4
biscia/biscia14/juve.php,4,,4.0,,,,,,1,7.1,,,2,1,36,90.0,,,,5,,1,8,1,1,8,,,,,0,,1,0,,,40,13,,,10,B,60,15.4
biscia/biscia14/login.php,0,,0.0,,,,,,0,,,,,,,,,,,1,,,2,,1,2,,,,,0,,1,0,,,17,0,,,0,A,4,
biscia/biscia14/parma.php,4,,4.0,,,,,,1,7.1,,,2,1,36,90.0,,,,5,,1,8,1,1,8,,,,,0,,1,0,,,40,13,,,10,B,60,15.4
biscia/biscia14/real.php,4,,4.0,,,,,,1,7.1,,,2,1,36,87.8,,,,5,,1,8,1,1,8,,,,,0,,1,0,,,41,13,,,10,B,60,15.4
biscia/biscia14/spagna.php,4,,4.0,,,,,,1,7.1,,,4,1,42,91.3,,,,5,,1,8,1,1,8,,,,,0,,1,0,,,46,13,,,10,B,60,15.4
biscia/biscia14/update.php,1,,1.0,,,,,,0,0.0,,,,,,,,,,1,,,2,1,,2,,,,,0,,1,0,,,18,9,,,6,A,3,1.1
biscia/biscia2+/catalog.php,1,,1.0,1.0,,,,,0,0.0,,,2,1,17,47.2,,,,,,,3,1,2,3,,,,,0,,1,1,,,36,27,,,20,A,14,1.7
biscia/biscia2+/form.php,0,,0.0,,,,,,0,0.0,,,,,,,,,,,,,1,,1,1,,,,,0,,1,0,,,24,18,,,2,A,2,0.4
biscia/biscia2+/welcome.php,0,,0.0,,,,,,0,0.0,,,,,,,,,,,,,1,,1,1,,,,,0,,1,0,,,12,6,,,2,A,2,1.1
biscia/biscia2/catalog.php,3,,3.0,3.0,,,,,0,0.0,,,,,,,,,,,,,1,,1,1,,,,,0,,1,1,,,26,21,,,17,A,2,0.3
biscia/biscia2/form.php,2,,2.0,,,,,,0,0.0,,,,,,,,,,,,,3,2,1,3,,,,,0,,1,0,,,18,14,,,6,A,6,1.4
biscia/biscia2/login.php,7,,7.0,,,,,,0,0.0,,,,,,,,,,2,,,6,3,1,6,,,,,0,,1,0,,,45,32,,,21,A,33,3.4
biscia/biscia2/shop.php,9,,9.0,9.0,,,,,0,0.0,,,,,,,,,,,,,2,,2,2,,,,,0,,1,1,,,47,41,,,29,A,12,1.0
biscia/biscia2/welcome.php,0,,0.0,,,,,,0,0.0,,,,,,,,,,,,,4,3,1,4,,,,,0,,1,0,,,9,3,,,3,A,8,8.9
bucero/bucero1/catalog.php,4,,4.0,4.0,,,,,0,0.0,,,,,,,,,,,,,2,,2,2,,,,,0,,1,1,,,60,48,,,15,A,4,0.3
bucero/bucero1/form.php,2,,2.0,,,,,,0,0.0,,,,,,,,,,,,,7,6,1,7,,,,,0,,1,0,,,30,20,,,11,A,12,2.0
bucero/bucero1/login.php,6,,6.0,6.0,,,,,0,0.0,,,,,,,,,,2,,,5,2,1,5,,,,,0,,1,1,,,45,34,,,18,A,30,2.9
bucero/bucero1/shop.php,3,,3.0,,,,,,1,2.2,,,,,,,,,,,,,2,1,1,2,,,,,0,,1,0,,,54,44,,,9,A,22,1.7
bucero/bucero1/welcome.php,0,,0.0,,,,,,0,0.0,,,,,,,,,,,,,1,,1,1,,,,,0,,1,0,,,16,11,,,2,A,2,0.6
bucero/bucero2/catalog.php,2,,2.0,2.0,,,,,0,0.0,,,1,1,12,25.0,,,,,,,3,,3,3,,,,,0,,1,1,,,48,41,,,7,A,22,1.8
bucero/bucero2/form.php,1,,1.0,,,,,,0,0.0,,,,,,,,,,,,,1,,1,1,,,,,0,,1,0,,,41,34,,,5,A,2,0.2
bucero/bucero2/login.php,17,,17.0,17.0,,,,,1,2.1,,,,,,,,,,5,,,18,12,1,18,,,,,0,,1,1,,,61,47,,,28,A,137,9.7
bucero/bucero2/shop.php,3,,3.0,3.0,,,,,0,0.0,,,1,1,12,21.1,,,,,,,4,,4,4,,,,,0,,1,1,,,57,47,,,11,A,32,2.3
bucero/bucero2/welcome.php,0,,0.0,,,,,,0,0.0,,,,,,,,,,,,,1,,1,1,,,,,0,,1,0,,,16,12,,,2,A,2,0.6
bucero/bucero24/inserisci_argomento.php,0,,0.0,,,,,,0,,,,,,,,,,,1,,,2,,1,2,,,,,0,,1,0,,,27,0,,,0,A,4,
bucero/bucero24/inserisci_immagine.php,0,,0.0,,,,,,0,,,,,,,,,,,1,,,2,,1,2,,,,,0,,1,0,,,24,0,,,0,A,4,
bucero/bucero24/inserisci_immagine1.php,1,,1.0,,,,,,0,0.0,,,,,,,,,,1,,,4,2,1,4,,,,,0,,1,0,,,35,10,,,5,A,6,2.0
bucero/bucero24/inserisci_sottoargomento1.php,3,,3.0,,,,,,0,0.0,,,,,,,,,,5,,,7,1,1,7,,,,,0,,1,0,,,41,8,,,5,C,55,22.9
bucero/bucero24/inserisci_sottoargomento11.php,3,,3.0,,,,,,0,0.0,,,,,,,,,,5,,,7,1,1,7,,,,,0,,1,0,,,47,8,,,5,C,55,22.9
buemuschiato/buemuschiato1+/catalog.php,2,,2.0,2.0,,,,,0,0.0,,,1,1,42,91.3,,,,1,,,4,,3,4,,,,,0,,1,1,,,46,32,,,11,A,24,2.5
buemuschiato/buemuschiato1+/form.php,1,,1.0,,,,,,0,0.0,,,,,,,,,,,,,1,,1,1,,,,,0,,1,0,,,22,11,,,10,A,2,0.6
buemuschiato/buemuschiato1+/login.php,0,,0.0,,,,,,0,,,,,,,,,,,,,,1,,1,1,,,,,0,,1,0,,,0,0,,,0,A,2,
buemuschiato/buemuschiato1+/shop.php,2,,2.0,2.0,,,,,0,0.0,,,1,1,44,77.2,,,,,,,3,,3,3,,,,,0,,1,1,,,57,39,,,18,A,22,1.9
buemuschiato/buemuschiato1+/welcome.php,0,,0.0,,,,,,0,0.0,,,,,,,,,,,,,1,,1,1,,,,,0,,1,0,,,8,3,,,3,A,2,2.2
buemuschiato/buemuschiato1/catalog.php,4,,4.0,4.0,,,,,0,0.0,,,,,,,,,,,,,3,,3,3,,,,,0,,1,1,,,46,35,,,14,A,22,2.1
buemuschiato/buemuschiato1/form.php,1,,1.0,,,,,,0,0.0,,,,,,,,,,,,,1,,1,1,,,,,0,,1,0,,,31,23,,,7,A,2,0.3
buemuschiato/buemuschiato1/login.php,5,,5.0,,,,,,0,0.0,,,1,1,21,55.3,,,,6,,,9,,3,9,,,,,0,,1,0,,,38,16,,,12,B,89,18.5
buemuschiato/buemuschiato1/register.php,6,,6.0,,,,,,0,0.0,,,1,1,21,52.5,,,,8,,,11,,3,11,,,,,0,,1,0,,,40,18,,,14,C,114,21.1
buemuschiato/buemuschiato1/register2.php,5,,5.0,,,,,,0,0.0,,,,,,,,,,8,,,10,,2,10,,,,,0,,1,0,,,34,18,,,15,B,104,19.3
buemuschiato/buemuschiato1/shop.php,1,,1.0,,,,,,0,0.0,,,,,,,,,,,,,2,,2,2,,,,,0,,1,0,,,45,5,,,4,A,12,8.0
buemuschiato/buemuschiato1/welcome.php,0,,0.0,,,,,,0,0.0,,,,,,,,,,,,,1,,1,1,,,,,0,,1,0,,,16,11,,,2,A,2,0.6
buemuschiato/buemuschiato2+/catalog.php,0,,0.0,,,,,,0,0.0,,,,,,,,,,,,,3,,3,3,,,,,0,,1,0,,,29,25,,,11,A,22,2.9
buemuschiato/buemuschiato2+/form.php,0,,0.0,,,,,,0,,,,,,,,,,,1,,,1,,,1,,,,,0,,1,0,,,11,0,,,0,A,2,
buemuschiato/buemuschiato2+/shop.php,0,,0.0,,,,,,0,,,,,,,,,,,,,,1,,1,1,,,,,0,,1,0,,,0,0,,,0,A,2,
buemuschiato/buemuschiato2+/welcome.php,0,,0.0,,,,,,0,0.0,,,,,,,,,,,,,1,1,,1,,,,,0,,1,0,,,6,3,,,3,A,2,2.2
buemuschiato/buemuschiato2/catalog.php,3,,3.0,3.0,,,,,0,0.0,,,,,,,,,,,,,1,,1,1,,,,,0,,1,1,,,26,21,,,17,A,2,0.3
buemuschiato/buemuschiato2/form.php,0,,0.0,,,,,,0,0.0,,,,,,,,,,,,,1,,1,1,,,,,0,,1,0,,,14,11,,,2,A,2,0.6
buemuschiato/buemuschiato2/login.php,5,,5.0,,,,,,1,2.6,,,1,1,17,37.0,,,,4,,,5,,1,5,,,,,0,,1,0,,,46,37,,,18,A,52,4.7
buemuschiato/buemuschiato2/registration.php,0,,0.0,,,,,,0,,,,1,1,14,,,,,,,,1,,1,1,,,,,0,,1,0,,,0,0,,,0,A,2,
buemuschiato/buemuschiato2/shop.php,0,,0.0,,,,,,0,0.0,,,,,,,,,,,,,1,,1,1,,,,,0,,1,0,,,42,38,,,5,A,2,0.2
buemuschiato/buemuschiato2/welcome.php,0,,0.0,,,,,,0,0.0,,,,,,,,,,,,,1,,1,1,,,,,0,,1,0,,,6,3,,,3,A,2,2.2
buemuschiato/buemuschiato25/index.php,0,,0.0,,,,,,0,,,,,,,,,,,1,,,2,,1,2,,,,,0,,1,0,,,38,0,,,0,A,4,
buemuschiato/buemuschiato25/inserimentopokemon1.php,2,,2.0,,,,,,0,0.0,,,,,,,,,,5,,,6,,1,6,,,,,0,,1,0,,,65,6,,,4,C,54,30.0
buemuschiato/buemuschiato25/inserimentopokemon2.php,4,,4.0,,,,,,0,0.0,,,,,,,,,,5,,,10,4,1,10,,,,,0,,1,0,,,66,22,,,13,A,60,9.1
buemuschiato/buemuschiato25/logipokemon.php,5,,5.0,,,,,,0,0.0,,,1,1,32,71.1,,,,6,,,8,1,1,8,,,,,0,,1,0,,,45,16,,,9,B,61,12.7
buemuschiato/buemuschiato25/pokemon2.php,3,,3.0,,,,,,0,0.0,,,,,,,,,,5,,,10,4,1,10,,,,,0,,1,0,,,44,13,,,10,B,61,15.6
buemuschiato/buemuschiato25/pokemon3.php,3,,3.0,,,,,,0,0.0,,,2,1,28,71.8,,,,5,,,8,2,1,8,,,,,0,,1,0,,,39,17,,,14,B,58,11.4
buemuschiato/buemuschiato25/pokemon4.php,3,,3.0,,,,,,0,0.0,,,,,,,,,,5,,,9,3,1,9,,,,,0,,1,0,,,54,16,,,12,B,59,12.3
marmotta/marmotta1+/catalog.php,9,,9.0,3.0,,,,,0,0.0,,,,,,,,,,,,,8,3,5,8,,,,,0,,1,3,,,46,36,,,27,A,48,4.4
marmotta/marmotta1+/form.php,1,,1.0,,,,,,0,0.0,,,,,,,,,,,,,1,,1,1,,,,,0,,1,0,,,21,15,,,5,A,2,0.4
marmotta/marmotta1+/login.php,0,,0.0,,,,,,0,,,,,,,,,,,,,,1,,1,1,,,,,0,,1,0,,,0,0,,,0,A,2,
marmotta/marmotta1+/welcome.php,0,,0.0,,,,,,0,0.0,,,,,,,,,,,,,1,,1,1,,,,,0,,1,0,,,8,2,,,2,A,2,3.3
marmotta/marmotta1/catalog.php,0,,0.0,,,,,,0,,,,,,,,,,,,,,1,,1,1,,,,,0,,1,0,,,0,0,,,0,A,2,
marmotta/marmotta1/es1.php,0,,0.0,,,,,,0,0.0,,,,,,,,,,,,,1,,1,1,,,,,0,,1,0,,,5,1,,,1,A,2,6.7
marmotta/marmotta1/form.php,1,,1.0,,,,,,0,0.0,,,,,,,,,,,,,1,,1,1,,,,,0,,1,0,,,17,12,,,5,A,2,0.6
marmotta/marmotta1/welcome.php,0,,0.0,,,,,,0,0.0,,,,,,,,,,,,,1,,1,1,,,,,0,,1,0,,,6,2,,,2,A,2,3.3
marmotta/marmotta13+/calciatrici.php,4,,4.0,,,,,,0,0.0,,,,,,,,,,5,,,9,3,1,9,,,,,0,,1,0,,,52,13,,,9,B,62,15.9
marmotta/marmotta13+/calciatrici2.php,3,,3.0,,,,,,0,0.0,,,,,,,,,,5,,,8,2,1,8,,,,,0,,1,0,,,49,10,,,7,B,57,19.0
marmotta/marmotta13+/calciatrici3.php,3,,3.0,,,,,,0,0.0,,,,,,,,,,5,,,7,1,1,7,,,,,0,,1,0,,,46,12,,,9,B,55,15.3
marmotta/marmotta13+/dati.php,0,,0.0,,,,,,0,,,,,,,,,,,1,,,2,,1,2,,,,,0,,1,0,,,18,0,,,0,A,4,
marmotta/marmotta13+/dati2.php,3,,3.0,,,,,,0,0.0,,,1,1,20,48.8,,,,5,,,7,1,1,7,,,,,0,,1,0,,,41,9,,,7,C,56,20.7
marmotta/marmotta13+/imgup.php,1,,1.0,,,,,,0,0.0,,,,,,,,,,1,,,4,2,1,4,,,,,0,,1,0,,,22,10,,,5,A,6,2.0
marmotta/marmotta13+/index.php,0,,0.0,,,,,,0,,,,,,,,,,,1,,,2,,1,2,,,,,0,,1,0,,,21,0,,,0,A,4,
marmotta/marmotta13+/inserimento.php,3,,3.0,,,,,,0,0.0,,,,,,,,,,5,,,14,7,2,14,,,,,0,,1,0,,,47,17,,,14,B,77,15.1
marmotta/marmotta13+/inserimento2.php,3,,3.0,,,,,,0,0.0,,,,,,,,,,5,,,13,6,2,13,,,,,0,,1,0,,,42,16,,,14,B,76,15.8
marmotta/marmotta13+/login.php,0,,0.0,,,,,,0,,,,,,,,,,,1,,,2,,1,2,,,,,0,,1,0,,,22,0,,,0,A,4,
marmotta/marmotta13+/sito.php,3,,3.0,,,,,,0,0.0,,,1,1,21,41.2,,,,5,,,19,13,1,19,,,,,0,,1,0,,,51,19,,,15,B,78,13.7
marmotta/marmotta13+/upload.php,0,,0.0,,,,,,0,,,,,,,,,,,1,,,2,,1,2,,,,,0,,1,0,,,17,0,,,0,A,4,
marmotta/marmotta13/index.php,3,,3.0,,,,,,0,0.0,,,4,1,30,93.8,,,,5,,,7,1,1,7,,,,,0,,1,0,,,32,9,,,7,C,56,20.7
marmotta/marmotta13/inserimento.php,3,,3.0,,,,,,0,0.0,,,,,,,,,,5,,,9,2,2,9,,,,,0,,1,0,,,37,12,,,10,B,68,18.9
marmotta/marmotta13/inserimento2.php,0,,0.0,,,,,,0,,,,,,,,,,,1,,,2,,1,2,,,,,0,,1,0,,,32,0,,,0,A,4,
marmotta/marmotta13/pallavolo.php,3,,3.0,,,,,,0,0.0,,,,,,,,,,5,,,7,1,1,7,,,,,0,,1,0,,,37,9,,,7,C,56,20.7
marmotta/marmotta13/pallavolo2.php,3,,3.0,,,,,,0,0.0,,,1,1,30,93.8,,,,5,,,6,,1,6,,,,,0,,1,0,,,32,12,,,10,B,54,15.0
marmotta/marmotta13/pallavolo3.php,3,,3.0,,,,,,0,0.0,,,1,1,23,67.6,,,,5,,,10,4,1,10,,,,,0,,1,0,,,34,10,,,7,C,61,20.3
mosca/mosca23+/inserisci.php,3,,3.0,,,,,,2,15.4,,,,,,,,,,5,,1,6,,,6,,,,,0,,1,0,,,48,11,,,9,B,53,16.1
mosca/mosca23+/inserisci2.php,4,,4.0,,,,,,1,6.7,,,2,1,25,58.1,,,,7,,1,13,3,2,13,,,,,0,,1,0,,,43,14,,,11,C,95,22.6
mosca/mosca23+/inserisci_ramo.php,4,,4.0,,,,,,1,7.7,,,,,,,,,,7,,1,12,3,1,12,,,,,0,,1,0,,,58,12,,,9,C,85,23.6
mosca/mosca23+/inserisci_ramo1.php,3,,3.0,,,,,,0,0.0,,,,,,,,,,5,,,9,3,1,9,,,,,0,,1,0,,,60,13,,,7,B,58,14.9
mosca/mosca23+/scegli.php,3,,3.0,,,,,,1,10.0,,,1,1,20,51.3,,,,5,,1,7,,1,7,,,,,0,,1,0,,,39,9,,,7,C,55,20.4
mosca/mosca23+/scegli2.php,3,,3.0,,,,,,2,14.3,,,,,,,,,,5,,1,6,,,6,,,,,0,,1,0,,,35,12,,,10,B,53,14.7
mosca/mosca23/accedi.php,0,,0.0,,,,,,0,,,,,,,,,,,1,,,2,,1,2,,,,,0,,1,0,,,38,0,,,0,A,4,
mosca/mosca23/categoria.php,0,,0.0,,,,,,0,,,,1,1,29,50.0,,,,1,,,2,,1,2,,,,,0,,1,0,,,58,0,,,0,A,4,
mosca/mosca23/elemento.php,4,,4.0,,,,,,0,0.0,,,,,,,,,,5,,,10,4,1,10,,,,,0,,1,0,,,50,14,,,9,B,60,14.3
mosca/mosca23/gusto.php,3,,3.0,,,,,,2,13.3,,,2,1,36,42.4,,,,5,,1,9,2,1,9,,,,,0,,1,0,,,85,13,,,10,B,58,14.9
mosca/mosca23/gusto1.php,3,,3.0,,,,,,3,20.0,,,2,1,35,46.1,,,,5,,1,9,2,1,9,,,,,0,,1,0,,,76,12,,,9,B,58,16.1
mosca/mosca23/gusto2.php,3,,3.0,,,,,,3,16.7,,,,,,,,,,5,,1,11,4,1,11,,,,,0,,1,0,,,42,15,,,12,B,62,13.8
mosca/mosca23/inserimento.php,3,,3.0,,,,,,1,6.3,,,,,,,,,,5,,,10,3,2,10,,,,,0,,1,0,,,38,15,,,10,B,69,15.3
mosca/mosca23/inserimento_el.php,4,,4.0,,,,,,0,0.0,,,,,,,,,,5,,,13,6,2,13,,,,,0,,1,0,,,42,18,,,13,B,74,13.7
muflone/muflone1/catalog.php,0,,0.0,,,,,,0,0.0,,,,,,,,,,,,,,,,,,,,,0,,1,0,,,11,8,,,2,A,,
muflone/muflone1/form.php,1,,1.0,,,,,,0,0.0,,,,,,,,,,,,,1,,1,1,,,,,0,,1,0,,,20,17,,,5,A,1,0.2
muflone/muflone1/shop.php,0,,0.0,,,,,,0,,,,,,,,,,,,,,,,,,,,,,0,,1,0,,,0,0,,,0,A,,
muflone/muflone1/welcome.php,0,,0.0,,,,,,0,0.0,,,,,,,,,,,,,,,,,,,,,0,,1,0,,,7,2,,,2,A,,
muflone/muflone33/index.php,0,,0.0,,,,,,0,,,,,,,,,,,1,,,2,,1,2,,,,,0,,1,0,,,33,0,,,0,A,4,
muflone/muflone33/inserimento_pokemon.php,4,,4.0,,,,,,0,0.0,,,,,,,,,,6,,,8,1,1,8,,,,,0,,1,0,,,45,18,,,11,B,76,14.1
muflone/muflone33/login_pokemon.php,5,,5.0,,,,,,0,0.0,,,1,1,42,79.2,,,,6,,,8,1,1,8,,,,,0,,1,0,,,53,33,,,9,A,61,6.2
muflone/muflone33/pokemon.php,3,,3.0,,,,,,0,0.0,,,,,,,,,,5,,,8,2,1,8,,,,,0,,1,0,,,34,14,,,10,B,58,13.8
muflone/muflone33/pokemon3.php,3,,3.0,,,,,,0,0.0,,,2,1,25,67.6,,,,5,,,8,2,1,8,,,,,0,,1,0,,,37,17,,,14,B,58,11.4
muflone/muflone33/pokemon4.php,3,,3.0,,,,,,0,0.0,,,1,1,12,30.8,,,,5,,,8,2,1,8,,,,,0,,1,0,,,39,15,,,12,B,58,12.9
surmolotto/surmolotto1/catalog.php,4,,4.0,4.0,,,,,0,0.0,,,,,,,,,,,,,5,,5,5,,,,,0,,1,1,,,26,23,,,18,A,42,6.1
surmolotto/surmolotto1/form.php,1,,1.0,,,,,,0,0.0,,,,,,,,,,,,,1,,1,1,,,,,0,,1,0,,,14,11,,,5,A,2,0.6
surmolotto/surmolotto1/welcome.php,0,,0.0,,,,,,0,0.0,,,,,,,,,,,,,1,,1,1,,,,,0,,1,0,,,5,2,,,2,A,2,3.3
surmolotto/surmolotto2/catalog.php,2,,2.0,2.0,,,,,0,0.0,,,,,,,,,,,,,3,,3,3,,,,,0,,1,1,,,38,27,,,7,A,22,2.7
surmolotto/surmolotto2/form.php,1,,1.0,,,,,,0,0.0,,,,,,,,,,,,,4,3,1,4,,,,,0,,1,0,,,20,11,,,7,A,8,2.4
surmolotto/surmolotto2/login.php,8,,8.0,,,,,,0,0.0,,,,,,,,,,4,,,8,3,1,8,,,,,0,,1,0,,,50,37,,,27,A,73,6.6
surmolotto/surmolotto2/welcome.php,0,,0.0,,,,,,0,0.0,,,,,,,,,,,,,1,,1,1,,,,,0,,1,0,,,8,3,,,3,A,2,2.2
svasso/svasso1+/catalog.php,0,,0.0,,,,,,0,0.0,,,,,,,,,,,,,1,,1,1,,,,,0,,1,0,,,31,26,,,3,A,2,0.3
svasso/svasso1+/form.php,0,,0.0,,,,,,0,0.0,,,,,,,,,,,,,1,,1,1,,,,,0,,1,0,,,19,15,,,6,A,2,0.4
svasso/svasso1+/shop.php,1,,1.0,1.0,,,,,0,0.0,,,,,,,,,,,,,1,,1,1,,,,,0,,1,1,,,39,31,,,6,A,2,0.2
svasso/svasso1+/welcome.php,0,,0.0,,,,,,0,,,,,,,,,,,1,,,2,,1,2,,,,,0,,1,0,,,14,0,,,0,A,4,
svasso/svasso1/catalog.php,2,,2.0,,,,,,0,0.0,,,,,,,,,,,,,1,,1,1,,,,,0,,1,0,,,25,20,,,8,A,2,0.3
svasso/svasso1/form.php,0,,0.0,,,,,,0,0.0,,,,,,,,,,,,,1,,1,1,,,,,0,,1,0,,,16,11,,,6,A,2,0.6
svasso/svasso1/shop.php,2,,2.0,,,,,,0,0.0,,,,,,,,,,,,,1,,1,1,,,,,0,,1,0,,,26,20,,,8,A,2,0.3
svasso/svasso1/welcome.php,0,,0.0,,,,,,0,0.0,,,,,,,,,,,,,1,,1,1,,,,,0,,1,0,,,7,2,,,2,A,2,3.3
svasso/svasso2/catalog.php,3,,3.0,3.0,,,,,0,0.0,,,,,,,,,,,,,13,10,3,13,,,,,0,,1,1,,,31,28,,,14,A,42,5.0
svasso/svasso2/form.php,1,,1.0,,,,,,0,0.0,,,,,,,,,,,,,1,,1,1,,,,,0,,1,0,,,14,11,,,5,A,2,0.6
svasso/svasso2/shop.php,0,,0.0,,,,,,0,,,,,,,,,,,,,,1,,1,1,,,,,0,,1,0,,,0,0,,,0,A,2,
svasso/svasso2/welcome.php,0,,0.0,,,,,,0,0.0,,,,,,,,,,,,,4,3,1,4,,,,,0,,1,0,,,6,3,,,3,A,8,8.9
svasso/svasso35+/accedi.php,0,,0.0,,,,,,0,,,,,,,,,,,1,,,2,,1,2,,,,,0,,1,0,,,28,0,,,0,A,4,
svasso/svasso35+/descriz.php,3,,3.0,,,,,,3,16.7,,,,,,,,,,5,,1,9,2,1,9,,,,,0,,1,0,,,794,15,,,10,B,76,16.9
svasso/svasso35+/nuovo_elemento.php,3,,3.0,,,,,,2,15.4,,,,,,,,,,5,,1,7,,1,7,,,,,0,,1,0,,,54,11,,,9,B,55,16.7
svasso/svasso35+/nuovo_ramo.php,0,,0.0,,,,,,0,,,,,,,,,,,1,,,1,,,1,,,,,0,,1,0,,,17,0,,,0,A,2,
svasso/svasso35+/pagina1.php,3,,3.0,,,,,,2,18.2,,,1,1,19,33.9,,,,5,,1,7,,1,7,,,,,0,,1,0,,,56,9,,,7,C,55,20.4
svasso/svasso35+/postlogin.php,3,,3.0,,,,,,0,0.0,,,,,,,,,,5,,,8,2,1,8,,,,,0,,1,0,,,50,12,,,6,B,56,15.6
svasso/svasso35+/risultato.php,4,,4.0,,,,,,1,7.1,,,1,1,26,61.9,,,,7,,1,12,3,1,12,,,,,0,,1,0,,,42,13,,,10,C,85,21.8
svasso/svasso35+/risultato_nuovo_elemento.php,5,,5.0,,,,,,1,4.0,,,,,,,,,,7,,1,15,5,2,15,,,,,0,,1,0,,,55,24,,,16,B,97,13.5
svasso/svasso35+/scegli.php,3,,3.0,,,,,,2,16.7,,,,,,,,,,5,,1,7,,1,7,,,,,0,,1,0,,,56,10,,,8,B,55,18.3
svasso/svasso35/10.php,3,,3.0,,,,,,0,0.0,,,1,1,50,96.2,,,,5,,,8,2,1,8,,,,,0,,1,0,,,52,12,,,6,B,56,15.6
svasso/svasso35/20.php,0,,0.0,,,,,,0,,,,,,,,,,,1,,,2,,1,2,,,,,0,,1,0,,,12,0,,,0,A,4,
svasso/svasso35/5.php,4,,4.0,,,,,,1,7.1,,,2,1,35,97.2,,,,7,,1,12,3,1,12,,,,,0,,1,0,,,36,13,,,10,C,85,21.8
svasso/svasso35/6.php,3,,3.0,,,,,,2,14.3,,,1,1,41,95.3,,,,5,,1,8,1,1,8,,,,,0,,1,0,,,43,12,,,9,B,56,15.6
svasso/svasso35/7.php,4,,4.0,,,,,,1,6.3,,,2,1,30,68.2,,,,7,,1,13,3,2,13,,,,,0,,1,0,,,44,15,,,11,C,95,21.1
svasso/svasso35/accedi.php,0,,0.0,,,,,,0,,,,,,,,,,,1,,,2,,1,2,,,,,0,,1,0,,,14,0,,,0,A,4,
svasso/svasso35/aggiungi.php,0,,0.0,,,,,,0,,,,,,,,,,,1,,,2,,1,2,,,,,0,,1,0,,,14,0,,,0,A,4,
svasso/svasso35/apertura.php,0,,0.0,,,,,,0,,,,,,,,,,,1,,,2,,1,2,,,,,0,,1,0,,,18,0,,,0,A,4,
svasso/svasso35/due.php,3,,3.0,,,,,,2,12.5,,,1,1,30,93.8,,,,5,,1,8,1,1,8,,,,,0,,1,0,,,32,14,,,11,B,56,13.3
svasso/svasso35/natura.php,3,,3.0,,,,,,2,15.4,,,1,1,28,96.6,,,,5,,1,7,,1,7,,,,,0,,1,0,,,29,11,,,9,B,55,16.7
svasso/svasso35/tre.php,3,,3.0,,,,,,3,20.0,,,,,,,,,,5,,1,10,2,2,10,,,,,0,,1,0,,,27,12,,,9,C,86,23.9
svasso/svasso35/ultima.php,1,,1.0,,,,,,0,0.0,,,,,,,,,,1,,,4,2,1,4,,,,,0,,1,0,,,20,10,,,5,A,6,2.0
